^C:\USERS\19202\SOURCE\REPOS\LIW.PLAYINGCARDS\LIW.PLAYINGCARDS.UI\DEBUG\MAIN.OBJ
C:\USERS\19202\SOURCE\REPOS\LIW.PLAYINGCARDS\DEBUG\LIW.PLAYINGCARDS.UI.ILK
C:\USERS\19202\SOURCE\REPOS\LIW.PLAYINGCARDS\DEBUG\LIW.PLAYINGCARDS.UI.EXE
C:\USERS\19202\SOURCE\REPOS\LIW.PLAYINGCARDS\DEBUG\LIW.PLAYINGCARDS.UI.PDB
